{
    "_": "Config example for the toa_client command-line utility",
    "client": {
        "url": "https://api-gateway.uio.no/sws/v2/",
        "headers": {
            "X-Gravitee-Api-Key": "..."
        }
    },
    "logging": {
        "version": 1,
        "replace_existing_loggers": false,
        "root": {
            "level": "INFO"
        },
        "loggers": {
            "__main__": {
                "level": "INFO"
            },
            "toa_client": {
                "level": "WARNING"
            },
            "urllib3": {
                "level": "DEBUG"
            }
        }
    }
}
